3168.79
3142.78
3150.93
3134.86
3150.65
3155.2
3147.2
3146.61
3131.08
3140.78
3155.06
3172.0
3212.68
3266.11
3242.23
3231.28
3227.89
3225.11
3228.05
3243.1
3291.7
3343.04
3383.44
3419.98
3443.0
3449.98
3431.68
3425.6
3410.66
3414.22
3390.42
3382.4
3350.0
3358.85
3368.97
3346.61
3346.81
3358.63
3354.43
3354.9
3373.37
3369.54
3369.35
3364.0
3364.94
3364.75
3355.38
3353.85
3335.96
3331.69
3321.39
3331.73
3332.01
3349.51
3364.88
3352.61
3352.41
3352.41
3335.09
3338.46
3372.95
3370.55
3375.3
3390.29
3386.54
3363.14
3376.27
3375.97
3377.49
3375.89
3358.82
3368.0
3373.48
3373.48
3382.08
3375.53
3371.05
3364.91
3345.48
3340.21
3333.71
3343.93
3355.41
3338.39
3346.0
3346.0
3346.0
3333.05
3329.04
3325.89
3327.77
3315.69
3333.3
3327.04
3320.89
3332.43
3317.51
3317.51
3329.0
3315.0
3323.67
3323.67
3322.46
3343.61
3343.61
3327.98
3346.56
3330.28
3330.89
3315.86
3340.23
3335.93
3334.09
3348.68
3344.32
3346.95
3348.43
3348.43
3348.44
3341.6
3345.03
3330.17
3339.29
3339.29
3339.29
3318.29
3325.92
3315.35
3325.74
3326.01
3339.95
3333.01
3327.28
3338.01
3332.97
3320.03
3332.36
3336.94
3327.73
3325.72
3326.12
3319.88
3315.01
3307.79
3312.97
3290.0
3299.73
3300.02
3300.02
3300.0
3300.02
3309.87
3309.87
3306.0
3304.45
3304.45
3304.45
3302.94
3301.97
3301.97
3290.38
3290.38
3295.0
3290.09
3298.97
3298.97
3319.05
3317.47
3328.58
3352.01
3345.29
3345.3
3340.0
3340.02
3330.19
3330.19
3339.2
3338.93
3338.93
3332.86
3323.86
3335.03
3339.17
3339.17
3342.55
3332.82
3332.92
3332.98
3344.29
3331.44
3331.44
3333.3
3333.04
3333.04
3320.96
3320.95
3320.94
3320.94
3332.84
3338.98
3338.98
3338.98
3324.03
3324.03
3326.39
3335.0
3331.56
3329.84
3344.86
3350.73
3353.12
3368.22
3367.95
3360.53
3360.63
3364.59
3355.28
3364.48
3372.04
3371.93
3358.46
3365.68
3365.03
3363.8
3363.52
3363.88
3363.31
3363.31
3363.31
3363.31
3362.79
3363.95
3379.86
3380.38
3385.42
3357.39
3357.39
3357.97
3363.83
3345.79
3345.79
3345.79
3357.89
3345.0
3343.75
3343.75
3344.07
3344.07
3344.07
3344.07
3340.43
3340.3
3336.15
3333.69
3342.39
3336.83
3344.19
3342.9
3342.1
3349.11
3349.0
3348.12
3331.1
3340.03
3331.07
3338.41
3338.25
3338.25
3338.25
3343.37
3337.85
3336.75
3336.9
3328.43
3330.0
3323.82
3330.0
3338.05
3324.48
3338.05
3338.05
3337.7
3337.7
3337.48
3346.1
3346.1
3346.1
3337.95
3346.11
3346.01
3350.15
3337.67
3329.88
3329.88
3340.27
3340.27
3339.36
3339.36
3339.36
3368.12
3381.24
3368.23
3360.0
3369.5
3361.0
3358.45
3360.0
3360.0
3346.09
3346.29
3360.0
3360.0
3363.31
3351.66
3369.67
3369.67
3358.46
3354.0
3353.99
3353.99
3344.0
3379.3
3379.14
3367.23
3380.01
3368.69
3370.98
3364.52
3360.18
3369.51
3369.16
3358.28
3374.97
3372.58
3373.51
3371.77
3368.98
3358.01
3369.9
3358.01
3362.51
3380.73
3367.8
3368.14
3389.35
3391.68
3398.96
3398.54
3402.13
3414.98
3422.5
3404.68
3397.45
3379.13
3374.74
3389.94
3377.84
3367.52
3385.23
3385.23
3372.0
3380.16
3383.39
3383.39
3383.39
3383.39
3389.81
3389.81
3372.79
3372.79
3372.79
3372.79
3372.79
3372.79
3372.79
3372.79
3372.79
3381.22
3382.48
3381.42
3366.37
3366.37
3376.91
3374.99
3374.2
3374.2
3372.58
3372.58
3358.57
3355.83
3365.91
3367.79
3367.79
3367.79
3369.3
3369.3
3369.3
3369.3
3363.0
3360.83
3368.39
3368.39
3363.59
3370.74
3361.96
3372.79
3382.63
3372.79
3381.74
3378.94
3378.94
3378.94
3362.6
3360.34
3361.02
3351.09
3342.59
3342.38
3330.98
3340.05
3340.05
3339.77
3349.07
3342.42
3342.42
3341.05
3341.05
3346.54
3346.27
3340.01
3348.33
3340.3
3347.08
3347.08
3346.35
3346.35
3346.35
3346.35
3346.36
3346.35
3346.35
3349.02
3348.47
3346.35
3343.5
3341.18
3347.47
3347.47
3345.58
3345.54
3345.02
3338.86
3343.26
3345.47
3342.85
3341.27
3351.92
3351.27
3343.0
3350.47
3350.45
3350.45
3350.45
3355.69
3366.47
3366.12
3367.53
3363.58
3363.58
3365.92
3353.28
3353.28
3353.28
3363.55
3360.89
3368.37
3368.36
3368.36
3368.36
3369.58
3369.48
3373.39
3372.28
3372.28
3370.21
3370.21
3366.41
3371.25
3365.31
3364.81
3363.36
3363.36
3363.26
3362.76
3352.58
3359.04
3355.54
3354.55
3353.25
3353.25
3351.34
3348.56
3341.0
3345.85
3352.95
3352.95
3350.37
3350.37
3350.37
3350.37
3355.28
3329.71
3343.85
3344.69
3344.13
3344.74
3344.81
3344.6
3346.04
3345.83
3350.36
3350.36
3348.69
3348.69
3345.62
3331.6
3345.53
3345.53
3342.85
3340.03
3340.03
3326.94
3332.14
3311.51
3306.77
3306.77
3311.05
3311.72
3311.72
3311.72
3310.43
3332.64
3330.01
3312.05
3308.54
3308.54
3303.47
3315.05
3314.04
3311.5
3300.0
3301.31
3296.74
3289.33
3295.17
3308.26
3307.15
3295.18
3298.64
3313.47
3313.45
3313.45
3301.71
3317.19
3315.39
3306.0
3300.89
3285.7
3285.7
3284.58
3276.91
3275.03
3273.97
3267.77
3266.31
3268.15
3268.15
3269.67
3257.82
3268.35
3273.88
3272.98
3272.44
3272.1
3271.2
3274.77
3276.29
3277.55
3272.49
3275.92
3276.38
3275.68
3269.14
3276.38
3276.38
3271.98
3284.56
3285.96
3279.44
3286.73
3285.47
3285.14
3284.9
3283.74
3282.51
3273.6
3273.6
3274.81
3274.81
3285.78
3285.78
3290.81
3292.77
3296.31
3294.16
3293.6
3302.32
3306.72
3296.18
3306.83
3306.83
3306.83
3297.73
3300.0
3300.0
3302.44
3302.08
3301.22
3309.82
3300.0
3300.0
3300.0
3300.0
3299.9
3291.33
3298.69
3298.69
3298.69
3298.69
3298.69
3289.99
3288.0
3288.0
3265.13
3276.53
3270.0
3266.51
3272.7
3274.73
3259.36
3248.71
3240.0
3234.73
3248.17
3257.93
3260.0
3260.0
3267.63
3267.63
3269.86
3280.0
3260.21
3260.21
3278.68
3280.0
3287.81
3286.92
3284.79
3283.45
3283.45
3283.45
3278.26
3280.2
3280.2
3280.2
3280.04
3280.04
3280.04
3290.0
3304.43
3298.12
3277.4
3277.4
3291.74
3282.43
3283.45
3283.45
3295.8
3294.95
3294.95
3280.0
3295.45
3295.45
3294.95
3294.95
3293.53
3293.53
3283.62
3287.48
3290.01
3290.01
3286.76
3286.69
3276.55
3276.41
3276.41
3289.51
3296.5
3285.65
3296.62
3296.62
3296.05
3294.98
3282.35
3282.35
3292.3
3291.63
3285.29
3285.29
3282.66
3282.66
3264.77
3264.77
3285.17
3285.17
3285.29
3285.29
3284.62
3284.62
3284.62
3271.52
3275.77
3256.01
3267.26
3272.41
3279.87
3279.87
3289.1
3275.0
3289.08
3277.68
3292.47
3280.24
3280.0
3280.0
3288.91
3276.29
3276.29
3272.4
3268.16
3274.43
3272.77
3261.78
3258.57
3258.57
3272.18
3272.18
3264.5
3261.65
3272.09
3272.09
3252.23
3252.23
3256.45
3246.52
3246.39
3230.96
3231.02
3221.0
3220.89
3231.31
3257.3
3247.83
3233.01
3229.57
3235.1
3235.1
3220.95
3220.95
3229.59
3241.64
3241.64
3235.03
3245.97
3245.97
3245.97
3232.34
3247.85
3247.85
3227.35
3216.42
3227.06
3216.6
3201.1
3235.47
3229.05
3221.34
3249.61
3237.21
3229.33
3229.33
3233.36
3243.35
3252.26
3252.26
3252.26
3233.03
3233.03
3227.88
3236.75
3239.31
3225.01
3220.42
3228.47
3228.85
3228.85
3228.85
3227.86
3237.64
3236.89
3235.52
3235.52
3235.52
3247.95
3242.88
3228.77
3241.46
3242.92
3242.92
3241.79
3230.86
3234.57
3234.57
3234.57
3243.67
3243.67
3243.67
3240.08
3238.95
3238.95
3238.95
3232.42
3232.42
3245.52
3245.52
3245.52
3245.52
3229.21
3230.47
3238.98
3222.12
3237.58
3235.87
3236.89
3236.04
3246.26
3264.4
3272.22
3259.51
3275.49
3271.99
3278.91
3266.97
3275.14
3263.64
3266.71
3282.05
3290.37
3280.25
3276.45
3276.45
3277.0
3277.77
3275.75
3266.18
3265.8
3266.74
3280.08
3266.49
3266.49
3266.49
3251.06
3249.22
3250.08
3251.16
3252.41
3252.41
3255.0
3255.0
3255.0
3256.37
3258.37
3257.12
3256.93
3270.86
3270.86
3270.86
3266.47
3276.88
3263.25
3263.25
3272.27
3261.0
3265.85
3275.79
3283.66
3282.46
3265.22
3265.22
3272.42
3256.22
3252.51
3252.51
3253.17
3255.01
3266.72
3266.72
3265.75
3256.53
3256.55
3256.8
3256.8
3255.18
3255.16
3255.36
3255.79
3255.01
3258.89
3251.0
3251.0
3251.0
3264.37
3260.0
3260.0
3263.67
3260.0
3260.0
3260.0
3260.0
3263.0
3264.89
3266.29
3264.87
3269.1
None
None
None
None
None
3261.44
3261.44
3261.44
3268.61
None
None
None
3263.9
3264.47
3266.64
3266.74
3268.34
3268.35
3269.4
3274.53
3278.35
3278.31
3278.31
3278.31
3276.35
3276.35
3279.99
3274.16
3272.92
3272.92
3257.43
3261.38
3266.64
3256.95
3257.77
3266.63
3266.63
3262.01
3262.01
3268.27
3270.67
3263.29
3264.69
3265.01
3278.71
3266.22
3276.84
3278.85
3278.85
3270.95
3279.99
3273.0
3273.0
3279.75
3273.34
3274.94
3283.16
3283.43
3295.0
3327.94
3353.29
3346.08
3346.04
3310.46
3318.91
3331.72
3315.8
3334.82
3325.4
3323.43
3323.43
3329.16
3328.35
3334.0
3317.0
3334.15
3328.13
3347.41
3358.82
3371.09
3388.06
3366.74
3366.0
3356.01
3357.06
3365.58
3360.84
3360.84
3375.99
3369.5
3351.08
3351.08
3353.57
3348.71
3374.86
3386.96
3383.32
3385.0
3385.0
3383.18
3383.18
3384.38
3384.37
3385.18
3383.14
3378.09
3377.75
3379.65
3346.5
3372.74
3372.74
3371.93
3379.26
3379.19
3379.19
3379.19
3368.35
3369.36
3366.46
3359.57
3359.57
3375.89
3375.89
3376.03
3373.64
3373.64
3373.64
3376.35
3374.95
3374.22
3374.22
3374.22
3369.39
3359.97
3346.44
3340.57
3340.88
3326.57
3344.51
3335.01
3335.01
3340.04
3332.36
3332.36
3332.36
3332.36
3350.59
3335.25
3335.98
3340.12
3340.02
3347.72
3322.89
3336.08
3336.08
3336.92
3321.91
3321.91
3327.04
3327.04
3327.04
3341.77
3341.77
3335.06
3335.06
3335.06
3350.39
3350.39
3350.39
3346.52
3350.67
3363.31
3363.31
3363.31
3360.53
3360.53
3360.53
3359.31
3360.42
3360.22
3360.04
3359.85
3345.15
3345.15
3345.15
3345.14
3345.14
3345.15
3344.52
3349.97
3340.0
3348.83
3348.48
3348.48
3348.48
3348.48
3349.99
3350.0
3350.0
3360.37
3360.37
3361.28
3361.28
3360.57
3354.47
3354.47
3368.27
3374.03
3365.63
3378.59
3361.79
3361.9
3361.9
3361.9
3373.34
3376.27
3376.27
3376.28
3382.93
3376.27
3378.84
3367.32
3367.32
3368.37
3379.99
3398.12
3400.0
3415.64
3415.64
3429.52
3450.9
3468.67
3443.17
3427.6
3435.91
3427.06
3438.96
3435.0
3430.02
3432.66
3453.2
3452.57
3467.12
3460.0
3451.8
3458.87
3458.87
3444.31
3444.34
3458.24
3458.24
3470.0
3475.0
3464.93
3468.59
3499.0
3499.08
3535.0
