4654.35
4638.5
4634.7
4630.5
4647.34
4633.8
4633.8
4622.0
4622.2
4622.2
4635.4
4625.42
4625.42
4628.65
4628.65
4628.8
4628.52
4622.02
4622.21
4622.3
4638.03
4638.03
4641.39
4641.39
4641.39
4641.39
4637.02
4626.98
4626.98
4622.15
4635.9
4612.45
4620.76
4620.76
4620.76
4603.38
4603.78
4618.4
4617.45
4605.13
4616.51
4616.51
4605.38
4605.38
4607.06
4607.06
4607.06
4626.41
4626.13
4613.47
4611.94
4622.36
4620.05
4602.62
4602.62
4602.62
4621.25
4620.86
4620.86
4619.86
4603.74
4600.0
4617.22
4601.34
4618.04
4603.03
4603.03
4603.85
4616.47
4616.54
4608.88
4608.88
4610.85
4609.3
4628.97
4628.97
4627.59
4640.27
4636.83
4636.83
4636.83
4629.14
4626.98
4624.0
4636.63
4636.73
4635.94
4641.47
4630.0
4635.94
4636.33
4630.0
4630.0
4630.0
4630.52
4643.0
4650.72
4650.72
4650.72
4639.95
4646.82
4654.08
4652.71
4652.71
4652.71
4652.71
4645.0
4645.0
4645.0
4632.12
4643.0
4643.0
4639.74
4647.07
4645.96
4645.96
4644.1
4644.1
4644.1
4644.1
4637.52
4636.0
4636.01
4635.86
4624.74
4635.18
4635.18
4634.98
4634.98
4634.98
4629.0
4629.0
4624.0
4624.0
4620.51
4620.51
4627.81
4616.13
4627.11
4618.19
4618.19
4618.19
4618.19
4620.65
4620.65
4622.11
4620.5
4632.4
4622.89
4622.89
4622.12
4622.12
4630.32
4630.32
4630.98
4631.0
4630.98
4630.42
4630.05
4630.43
4630.43
4630.43
4630.96
4630.96
4620.97
4629.94
4621.97
4629.94
4622.93
4615.8
4615.8
4615.8
4615.8
4615.8
4615.65
4615.65
4612.16
4612.16
4623.4
4613.04
4613.04
4620.55
4620.38
4616.77
4604.15
4604.14
4604.14
4596.98
4596.98
4608.72
4608.72
4606.73
4606.64
4597.47
4605.93
4596.95
4601.98
4583.09
4597.91
4595.0
4583.13
4583.13
4598.0
4585.97
4608.87
4608.87
4606.24
4605.73
4604.52
4603.14
4601.27
4601.27
4595.95
4595.95
4595.95
4595.95
4595.95
4595.95
4608.39
4608.39
4608.39
4608.39
4596.51
4596.51
4596.51
4596.0
4596.0
4588.77
4594.0
4590.14
4590.25
4590.25
4589.25
4596.51
4596.51
4596.51
4596.51
4603.38
4603.85
4603.85
4603.0
4605.25
4605.25
4601.4
4608.4
4608.4
4613.5
4613.5
4605.25
4602.75
4610.96
4600.42
4602.21
4603.01
4603.01
4603.01
4622.13
4610.55
4622.13
4614.48
4623.33
4611.67
4611.31
4613.5
4613.5
4611.01
4611.0
4612.16
4610.0
4606.0
4607.66
4606.95
4606.95
4606.0
4603.01
4604.07
4603.44
4603.44
4603.01
4603.18
4603.08
4603.08
4603.14
4603.14
4612.04
4612.04
4603.46
4603.11
4603.08
4601.08
4600.08
4600.0
4599.47
4597.95
4598.58
4598.58
4592.25
4592.25
4584.48
4582.64
4584.87
4583.96
4586.2
4594.48
4593.0
4585.0
4589.06
4580.43
4580.56
4587.86
4571.32
4573.68
4565.21
4566.0
4567.06
4567.06
4563.02
4568.83
4585.79
4594.85
4591.66
4591.66
4591.66
4590.12
4589.45
4589.26
4587.82
4595.13
4595.21
4579.89
4592.98
4591.68
4592.82
4594.99
4594.99
4585.07
4584.92
4585.06
4596.72
4580.0
4592.75
4592.75
4586.0
4586.0
4581.0
4585.11
4585.11
4585.11
4585.11
4585.11
4584.97
4584.57
4584.25
4578.92
4578.92
4571.61
4571.49
4572.78
4572.81
4572.81
4575.0
4575.0
4577.68
4577.68
4577.68
4569.0
4566.0
4555.0
4545.01
4545.56
4558.21
4546.27
4563.82
4563.49
4561.0
4561.0
4561.0
4561.0
4558.01
4560.99
4554.95
4554.95
4554.95
4560.5
4560.0
4554.98
4548.12
4540.0
4537.55
4542.24
4546.79
4549.49
4548.15
4535.01
4535.0
4512.32
4478.38
4502.19
4502.19
4529.17
4514.76
4509.57
4516.2
4513.72
4500.0
4503.9
4503.9
4504.98
4515.65
4504.99
4510.01
4509.73
4506.26
4506.37
4515.74
4515.74
4520.0
4506.71
4510.0
4513.24
4513.24
4513.23
4504.01
4503.6
4503.6
4482.55
4482.94
4489.89
4496.37
4496.39
4497.01
4503.02
4496.0
4502.7
4502.7
4490.46
4498.0
4498.0
4482.65
4462.0
4471.8
4479.52
4480.95
4470.0
4468.44
4475.9
4458.59
4454.0
4452.99
4488.35
4473.64
4502.77
4514.0
4503.27
4512.59
4494.81
4507.49
4507.49
4507.32
4489.84
4484.87
4497.2
4484.78
4487.59
4493.38
4481.48
4493.36
4493.16
4493.16
4478.91
4485.09
4489.24
4489.24
4478.03
4477.89
4475.99
4475.0
4475.0
4487.34
4477.58
4476.48
4486.24
4485.86
4478.52
4492.02
4495.0
4496.39
4500.92
4500.7
4500.52
4495.96
4486.29
4478.01
4477.13
4477.13
4477.13
4486.51
4486.57
4486.09
4478.52
4477.13
4477.15
4470.16
4471.13
4471.23
4479.91
4480.0
4467.2
4450.0
4461.76
4476.68
4476.68
4476.68
4460.9
4463.46
4450.0
4452.0
4450.5
4451.91
4451.91
4450.0
4446.94
4430.93
4430.88
4441.87
4450.41
4450.36
4429.49
4441.43
4450.25
4438.44
4443.28
4429.0
4433.22
4448.3
4454.86
4463.16
4460.65
4467.08
4454.92
4450.72
4450.72
4440.56
4440.56
4440.0
4437.83
4436.69
4440.37
4431.19
4431.37
4443.99
4443.66
4443.99
4443.2
4437.4
4438.41
4457.52
4470.71
4490.98
4487.57
4484.15
4484.15
4478.43
4476.9
4465.34
4475.72
4467.05
4466.32
4450.98
4450.98
4455.42
4451.15
4454.24
4462.54
4443.59
4440.41
4446.0
4437.41
4453.3
4461.66
4475.7
4472.91
4482.61
4480.47
4466.46
4466.46
4462.72
4477.45
4464.56
4464.56
4466.55
4467.05
4477.05
4467.06
4465.4
4465.4
4473.4
4470.0
4465.0
4465.0
4465.0
4465.0
4465.0
4462.52
4455.0
4455.0
4444.25
4453.55
4440.08
4454.68
4440.01
4440.01
4451.58
4446.71
4445.24
4446.68
4446.69
4446.71
4446.0
4446.5
4446.48
4436.72
4436.72
4446.12
4437.52
4445.8
4445.21
4436.2
4436.2
4446.7
4445.0
4446.71
4458.4
4449.71
4449.51
4457.57
4455.79
4445.25
4445.25
4443.12
4453.7
4453.62
4453.62
4454.78
4463.64
4452.82
4470.0
4500.06
4485.11
4485.34
4479.54
4465.6
4462.25
4482.32
4479.75
4478.94
4478.94
4473.73
4460.0
4465.76
4467.23
4467.23
4470.55
4460.19
4472.97
4472.97
4462.0
4462.0
4462.0
4447.03
4455.58
4449.98
4454.07
4454.04
4457.42
4455.0
4461.74
4457.13
4438.93
4438.93
4438.93
4456.42
4455.75
4455.75
4455.75
4455.75
4462.0
4462.0
4461.99
4461.99
4462.0
4461.99
4464.82
4472.3
4472.28
4472.24
4472.09
4472.09
4472.09
4472.09
4458.2
4458.2
4459.11
4459.11
4471.75
4471.11
4460.25
4470.11
4467.78
4466.37
4468.66
4468.61
4468.09
4460.31
4461.12
4471.47
4463.36
4463.77
4465.17
4465.17
4481.46
4467.97
4475.92
4462.88
4461.43
4461.43
4460.14
4450.0
4447.51
4434.79
4434.79
4438.96
4438.74
4438.74
4429.34
4429.34
4416.6
4411.94
4402.0
4418.28
4414.71
4417.21
4424.27
4427.19
4426.84
4426.84
4412.42
4423.25
4415.25
4427.13
4428.0
4423.25
4400.86
4420.93
4419.62
4409.93
4399.74
4399.71
4399.29
4400.18
4391.99
4393.0
4380.0
4390.07
4386.99
4386.99
4395.67
4396.65
4393.07
4382.58
4376.52
4358.43
4359.64
4340.0
4345.68
4346.64
4364.84
4377.32
4371.88
4362.74
4392.97
4390.9
4390.85
4392.96
4390.2
4402.21
4401.72
4401.84
4442.12
4467.76
4418.96
4457.28
4438.25
4450.01
4448.32
4449.99
4448.32
4445.31
4445.31
4449.39
4450.01
4449.47
4458.61
4450.56
4456.69
4456.69
4444.66
4442.89
4442.57
4446.3
4446.3
4443.25
4443.25
4431.42
4444.9
4433.84
4433.84
4433.84
4433.84
4433.84
4427.91
4430.04
4420.0
4430.69
4426.3
4426.3
4426.3
4421.01
4413.55
4410.0
4400.0
4414.84
4411.93
4409.99
4410.0
4402.32
4403.74
4418.19
4419.0
4431.0
4431.0
4416.61
4433.4
4433.4
4432.95
4432.95
4432.95
4432.95
4430.08
4420.0
4420.0
4419.0
4418.05
4426.73
4425.51
4415.09
4428.29
4427.69
4426.64
4426.64
4415.61
4415.6
4415.49
4406.37
4406.37
4395.21
4375.49
4393.87
4390.96
4400.07
4398.55
4396.49
4395.05
4382.58
4392.74
4392.77
4400.0
4399.99
4392.87
4405.84
4400.01
4394.01
4394.06
4394.5
4395.89
4415.2
4415.04
4407.71
4407.71
4396.05
4396.05
4396.09
4396.09
4396.09
4399.99
4399.26
4398.94
4398.94
4391.0
4398.82
4383.62
4387.22
4391.65
4390.0
4379.86
4386.23
4384.82
4376.44
4376.44
4382.62
4371.0
4384.0
4380.97
4387.99
4380.26
4387.84
4386.88
4386.88
4386.88
4386.48
4390.0
4399.0
4399.0
4399.0
4398.9
4398.9
4398.17
4398.98
4398.95
4398.97
4394.47
4390.65
4390.65
4397.79
4397.79
4397.87
4397.0
4397.0
4400.0
4400.0
4392.89
4392.89
4399.99
4399.33
4398.48
4396.45
4395.84
4395.84
4396.17
4396.17
4396.7
4387.82
4382.29
4380.03
4380.04
4391.31
4381.55
4382.57
4390.75
4388.57
4388.57
4388.79
4381.1
4381.8
4381.78
4394.32
4381.18
4392.88
4392.13
4381.01
4381.0
4381.32
4399.0
4400.09
4395.0
4409.0
4400.0
4416.4
4419.72
4403.95
