3300.3604
3302.4657
3300.9892
3299.8521
3297.4941
3295.9059
3292.6944
3292.4578
3290.3849
3293.2879
3295.809
3298.7517
3301.2801
3297.2517
3296.2115
3294.2296
3292.7605
3290.3834
3291.4926
3296.7316
3299.3026
3300.4513
3299.617
3300.3808
3300.5041
3298.9693
3294.1813
3293.7906
3294.4735
3296.1567
3299.5935
3312.7401
3316.9979
3313.9532
3311.123
3315.7524
3310.4694
3305.301
3301.92
3300.5482
3294.6057
3286.9728
3273.8233
3282.2097
3284.6287
3279.1709
3280.7131
3275.6019
3280.3018
3279.7158
3301.6336
3299.1247
3298.3126
3306.2339
3301.7137
3301.3965
3300.6079
3294.9158
3294.3166
3300.8282
3299.9015
3298.01
3292.5045
3290.5439
3294.8938
3294.3255
3297.9601
3296.6854
3311.3459
3320.2585
3314.7926
3309.9508
3304.8212
3303.3453
3303.0207
3304.0678
3303.7183
3305.9754
3305.8859
3314.0437
3311.5603
3303.4623
3298.5385
3298.4974
3300.2537
3307.3508
3305.1525
3310.5183
3314.1675
3320.3571
3316.0163
3315.677
3315.4347
3311.7313
3312.5051
3319.2557
3323.1839
3321.7272
3314.5463
3317.9414
3317.2997
3312.1865
3309.6622
3303.7809
3303.267
3301.7397
3302.5224
3301.4549
3303.2787
3299.8175
3310.4272
3306.7089
3302.9095
3298.5784
3294.6982
3297.1377
3294.0476
3292.3381
3289.8429
3288.853
3292.8066
3294.4633
3298.643
3294.4545
3292.0987
3292.2853
3293.4778
3295.3973
3293.9228
3289.7048
3289.7401
3293.0034
3293.1165
3292.5261
3293.679
3287.7354
3283.698
3282.5804
3269.4771
3277.4284
3289.4258
3294.8961
3291.6327
3297.0266
3295.8585
3298.0978
3295.7659
3291.9545
3294.8961
3301.6433
3301.1394
3297.776
3295.7454
3293.0139
3295.5308
3295.8086
3295.5661
3294.3069
3294.2966
3295.691
3290.995
3303.3507
3298.928
3295.7909
3295.6866
3297.2485
3294.6301
3298.59
3297.6643
3300.9336
3301.7491
3301.7632
3303.2208
3300.5083
3300.3555
3301.9174
3301.5178
3301.0094
3300.8566
3300.6876
3293.5965
3293.5054
3292.4284
3291.7642
3291.3631
3290.7871
3294.5766
3293.2174
3291.4219
3288.8579
3285.9941
3283.8136
3277.1383
3278.8766
3280.0476
3280.6266
3281.9196
3279.457
3269.9444
3266.9763
3250.3815
3254.5699
3324.7815
3331.7374
3343.3419
3368.71
3380.642
3372.2996
3383.7293
3375.7497
3378.8663
3377.4607
3381.4821
3395.8126
3391.3418
3385.3978
3380.1911
3384.239
3387.6567
3381.0063
3376.697
3383.8189
3382.312
3384.5224
3383.3797
3387.7874
3385.3332
3385.3288
3385.975
3389.9568
3398.8808
3392.2302
3390.4571
3385.2217
3393.5155
3388.7134
3389.2232
3389.2467
3391.8233
3386.5981
3379.3032
3376.7736
3377.2643
3372.5856
3368.9631
3376.8486
3372.6649
3375.0285
3373.9341
3373.1717
3371.8217
3375.8629
3374.8229
3374.9374
3378.1369
3382.8478
3381.6066
3384.4799
3382.6099
3385.3598
3380.355
3381.942
3375.733
3375.127
3374.4329
3379.7787
3375.2256
3377.7683
3377.7139
3377.9948
3383.2847
3383.0347
3383.1671
3383.4759
3381.2935
3382.217
3381.0214
3379.8096
3379.111
3379.1669
3378.5801
3375.955
3376.9845
3376.7124
3376.68
3381.4553
3381.9347
3381.6347
3384.3377
3385.7143
3386.2525
3389.5823
3392.7127
3393.8562
3396.2184
3399.5312
3396.2463
3396.2861
3395.9152
3396.5171
3396.08
3395.3368
3394.3537
3394.258
3392.23
3391.8444
3393.6811
3393.4854
3393.0674
3393.6443
3397.2942
3394.0858
3393.1557
3389.9238
3389.3777
3386.5711
3389.8001
3388.8567
3390.7347
3389.5426
3388.14
3383.2071
3383.9953
3388.3126
3385.7275
3386.8892
3389.8434
3392.8108
3394.4063
3397.681
3399.397
3406.4847
3405.576
3403.3026
3398.9912
3393.6651
3394.2313
3395.243
3393.5137
3390.2683
3392.027
3393.3696
3392.0609
3391.7182
3391.8315
3390.4477
3389.0817
3387.9347
3388.6552
3390.1581
3391.2668
3391.27
3386.9815
3380.5605
3368.8649
3365.9755
3358.6683
3362.0985
3361.8149
3366.5986
3367.501
3362.9877
3356.5637
3354.6429
3358.3832
3358.5948
3351.3009
3352.6588
3347.3254
3348.7877
3346.5729
3352.5736
3347.4136
3348.0338
3349.0111
3345.8881
3339.8639
3336.8937
3340.4621
3350.2589
3349.5182
3346.2232
3349.9816
3343.2783
3348.0458
3353.1295
3349.8507
3350.5112
3348.9107
3347.6089
3346.6513
3347.5868
3349.3844
3351.2834
3350.9687
3349.3388
3349.3741
3345.4333
3346.4439
3347.072
3348.1223
3348.8945
3348.7474
3344.6007
3345.2185
3346.2894
3346.2453
3346.3997
3350.8642
3349.9375
3351.2099
3351.3723
3352.9583
3355.3939
3354.6972
3354.2268
3353.7094
3353.8961
3352.9201
3347.4535
3349.9244
3348.9307
3343.1761
3343.8508
3344.5578
3345.4147
3327.4496
3312.7476
3317.0794
3314.3322
3307.9631
3301.6645
3310.0915
3311.5717
3311.2542
3309.677
3311.6584
3311.6128
3309.6873
3309.9812
3297.4591
3302.8533
3303.2101
3305.9447
3296.7908
3282.7801
3287.3563
3281.9341
3287.6089
3294.3954
3294.6128
3298.5854
3291.5478
3296.6322
3294.0195
3293.7698
3293.5657
3293.8667
3280.3128
3285.6938
3287.6882
3284.704
3282.6347
3266.6252
3265.7337
3270.2615
3262.2017
3255.9321
3260.1515
3264.8129
3256.0246
3245.6486
3250.9803
3251.9795
3247.4048
3247.9242
3248.9483
3248.6343
3254.9534
3259.7922
3270.2781
3264.0675
3265.0828
3258.9515
3260.514
3250.4551
3224.7311
3216.2347
3207.9979
3204.4341
3200.8513
3200.9159
3189.4132
3176.8454
3274.0487
3262.5006
3288.6325
3275.5145
3268.6525
3280.3312
3266.0717
3244.0836
3234.7117
3238.8996
3219.8193
3217.4101
3228.0532
3217.3077
3201.1252
3189.0222
3195.6339
3184.378
3204.1897
3195.5096
3186.126
3184.9982
3189.4421
3188.914
3203.1862
3196.4297
3195.7729
3197.7198
3208.8135
3226.4997
3213.7269
3223.9399
3223.64
3217.1527
3215.5012
3208.2547
3202.9448
3201.8882
3190.8255
3189.6731
3200.4679
3199.6933
3208.1876
3198.4471
3207.7586
3208.0675
3211.9201
3215.9674
3213.9467
3210.1454
3206.8419
3200.2936
3208.9242
3205.2107
3199.5615
3196.8511
3196.6138
3187.4591
3175.7067
3169.0236
3175.1253
3177.8021
3168.7483
3170.0106
3207.0674
3183.28
3170.3225
3182.8407
3169.4557
3156.3125
3161.5191
3168.701
3166.9982
3163.3025
3171.5674
3172.7206
3171.9835
3166.4941
3173.3991
3173.8988
3170.1195
3185.3495
3182.7308
3182.3351
3184.0907
3179.6593
3177.892
3176.516
3177.2458
3177.5755
3184.1566
3179.9289
3178.1617
3186.661
3202.2001
3192.3863
3187.7894
3185.0844
3179.5077
3183.3616
3181.9565
3191.9843
3194.4111
3188.8388
3179.919
3178.1303
3178.2152
3177.2448
3178.6792
3176.8262
3165.5264
3165.5411
3161.4954
3153.5856
3168.5212
3173.0879
3162.359
3173.4846
3174.5384
3173.9398
3180.9392
3185.1371
3180.4708
3195.2425
3186.6388
3188.4099
3188.5914
3179.2798
3180.6971
3183.0383
3186.8495
3185.7704
3182.949
3182.0749
3172.8653
3176.8712
3183.4102
3187.0208
3184.0208
3185.1145
3186.4161
3191.6988
3213.8136
3205.5323
3208.4621
3207.5631
3197.1617
3203.4151
3201.6391
3204.0008
3205.1648
3203.1999
3206.7109
3208.4577
3214.7961
3208.7256
3213.5457
3213.5136
3207.8878
3202.5478
3210.807
3205.7307
3204.6902
3204.425
3210.316
3209.6361
3213.4623
3213.6308
3210.6208
3205.0962
3204.8207
3206.5601
3207.1141
3207.7911
3208.8872
3211.1953
3207.816
3204.6859
3204.9042
3202.4906
3203.0724
3204.321
3206.862
3211.6393
3216.2188
3214.3401
3217.1904
3219.4165
3218.7415
3211.8037
3205.727
3215.277
3212.7819
3210.9706
3206.8764
3208.3627
3208.2324
3208.2924
3209.4331
3214.4189
3216.917
3215.5128
3218.1587
3218.825
3217.3944
3215.5581
3212.6413
3210.6089
3202.6593
3206.2219
3205.8939
3203.0225
3202.5612
3183.1683
3187.6578
3177.5352
3178.0111
3187.7323
3186.6085
3188.4268
3189.1843
3195.6004
3192.7506
3188.5601
3184.377
3180.1748
3185.7543
3186.7081
3181.681
3174.4092
3172.7858
3171.3601
3176.9455
3170.5777
3166.399
3165.5814
3175.5829
3186.4708
3186.3448
3185.5565
3181.1023
3169.1023
3176.1411
3176.4019
3175.5374
3180.8004
3181.0774
3189.1566
3201.8864
3190.8514
3194.3803
3194.6074
3174.9941
3181.1554
3179.5616
3175.3208
3178.337
3181.9948
3179.7169
3176.8047
3170.7665
3170.8792
3150.7943
3156.5351
3120.1358
3129.1697
3116.9028
3117.8755
3099.2422
3091.9706
3058.4526
3062.4049
3052.807
3065.5807
3056.4633
3056.3623
3042.9806
3017.6121
3034.1077
3030.8247
3041.1088
3076.3224
3045.2064
3055.5637
3039.8871
3040.7734
3050.8319
3053.0996
3045.7968
3039.2542
3036.8311
3029.4564
3032.5007
3032.4626
3035.0395
3037.4948
3019.6953
3014.8126
2986.2573
2996.789
2994.8025
2976.4098
2979.3881
2959.5289
2947.5146
2946.0848
2980.4003
2986.659
2983.4543
2973.2131
2973.5354
2979.0085
2975.5473
2962.0282
2963.9404
2956.5962
2963.5917
2957.978
2941.6629
2938.108
2961.2735
2958.8162
2947.8203
2956.7955
2962.5205
2956.2416
2961.4435
2966.8389
2965.2079
2965.2622
2988.8541
2986.6985
2982.9048
2983.5027
2971.5309
2978.4868
2979.0011
2981.8582
2990.2224
2996.6497
2989.9543
2983.6808
2976.6674
2967.0843
2968.2651
2966.3708
2974.3496
2972.8743
2981.3571
2978.8167
2968.123
2965.2793
2963.3674
2951.5016
2956.9356
2952.3045
2950.2607
2956.7071
2956.4243
2949.0374
2946.8881
2939.3942
2945.3527
2931.5369
2941.9361
2958.5165
2955.6259
2958.2465
2940.8878
2941.049
2947.0521
2946.1055
2935.3434
2929.6597
2931.4371
2937.0723
2944.6418
2944.23
2952.8559
2954.3401
2958.6245
2962.6744
2966.6217
2959.7644
2972.068
2966.0122
2958.1454
2959.908
2961.0172
2952.2463
2950.1129
2951.0331
2951.1489
2950.2565
2950.7591
2948.9232
2953.5738
2956.115
2956.761
2956.7024
2954.8113
2953.5778
2951.5387
2951.0041
2953.0666
2961.412
2963.4247
2967.7783
2959.9764
2960.0643
2972.1451
2968.0844
2971.064
2970.1133
2970.4927
2972.7881
2979.9748
2981.3752
2975.8087
2972.4556
2968.3159
2965.6777
2968.688
2967.8837
2966.5156
2965.4887
2962.8592
2959.6899
2953.5941
2959.0423
2956.1526
2970.4514
2985.1003
2980.845
2988.2948
2997.1732
2996.1695
2989.9213
2988.9351
2987.8933
2996.0142
2994.099
2988.8692
2992.3713
3005.8568
3018.5525
3018.2609
3013.0194
3021.0582
3013.9719
3011.4442
3010.4844
3010.3085
3011.4954
3012.9168
3004.4267
3004.9893
3002.9642
2996.9233
2997.501
3001.5991
3002.0785
2995.2107
2996.5758
2998.5068
2998.6285
3003.9084
3003.0785
2993.1301
2997.0567
2992.1126
2989.4865
2991.6874
2990.5408
2989.8414
2981.7448
2981.1437
2981.4692
2977.635
2975.7978
2973.3609
2974.2583
2982.6261
2976.5324
2973.5823
2979.7654
2985.6406
2980.9573
2987.6438
2989.2982
2992.774
2994.3493
2989.7774
2988.0555
2991.8333
2993.2547
2993.284
2994.805
2995.3912
2993.6738
2995.4571
2992.5029
2990.8749
2992.8619
2993.1301
3003.0961
3000.0466
3000.2049
3002.8059
3001.0519
2998.7146
2990.299
2989.7817
2985.7388
2983.1466
2982.1208
